{
    "version": 1,

    "groups" : [
	{
	    "id": "kitchen",
	    "name": "Kitchen",
	    
	    "devices": [
		{
		    "id": "kitchen-light-1",
		    "device-type": "light",
	    
		    "name": "Kitchen Light 1",
		    "comment": "Light on top of the stove",

		    "module": 0,
		    "channel": 0,
		    "control-type": "toggle"
		},

	
		{
		    "id": "kitchen-light-2",
		    "device-type": "light",
	    
		    "name": "Kitchen Light 2",
		    "comment": "Light on the ceiling",

		    "module": 0,
		    "channel": 1,
		    "control-type": "dimmer"
		}
	    ]
	},

	{
	    "id": "shower",
	    "name": "Shower",
	    
	    "devices": [
		{
		    "id": "floor-heater",
		    "device-type": "heating",

		    "name": "Floor heating",
		    "comment": "",

		    "module": 1,
		    "channel": 0,
		    "control-type": "toggle"
		}
	    ]
	},

	{
	    "id": "living-room",
	    "name": "Living room",

	    "devices": [
	    ]
	}
    ]
}
